{
  "annotations": {
    "list": [
      {
        "builtIn": 1,
        "datasource": {
          "type": "grafana",
          "uid": "-- Grafana --"
        },
        "enable": true,
        "hide": true,
        "iconColor": "rgba(0, 211, 255, 1)",
        "name": "Annotations & Alerts",
        "target": {
          "limit": 100,
          "matchAny": false,
          "tags": [],
          "type": "dashboard"
        },
        "type": "dashboard"
      }
    ]
  },
  "editable": true,
  "fiscalYearStartMonth": 0,
  "graphTooltip": 0,
  "id": 5453,
  "links": [],
  "liveNow": false,
  "panels": [
    {
      "collapsed": true,
      "gridPos": {
        "h": 1,
        "w": 24,
        "x": 0,
        "y": 0
      },
      "id": 12,
      "panels": [
        {
          "datasource": {
            "type": "mysql",
            "uid": "VGpHWV5Vk"
          },
          "fieldConfig": {
            "defaults": {
              "color": {
                "mode": "palette-classic"
              },
              "custom": {
                "axisLabel": "files/hour",
                "axisPlacement": "auto",
                "barAlignment": 0,
                "drawStyle": "line",
                "fillOpacity": 20,
                "gradientMode": "none",
                "hideFrom": {
                  "legend": false,
                  "tooltip": false,
                  "viz": false
                },
                "lineInterpolation": "stepAfter",
                "lineWidth": 1,
                "pointSize": 1,
                "scaleDistribution": {
                  "type": "linear"
                },
                "showPoints": "auto",
                "spanNulls": false,
                "stacking": {
                  "group": "A",
                  "mode": "normal"
                },
                "thresholdsStyle": {
                  "mode": "off"
                }
              },
              "mappings": [],
              "noValue": "0",
              "thresholds": {
                "mode": "absolute",
                "steps": [
                  {
                    "color": "green",
                    "value": null
                  },
                  {
                    "color": "red",
                    "value": 80
                  }
                ]
              },
              "unit": "si:"
            },
            "overrides": []
          },
          "gridPos": {
            "h": 10,
            "w": 12,
            "x": 0,
            "y": 1
          },
          "id": 2,
          "options": {
            "legend": {
              "calcs": [
                "max",
                "mean",
                "min",
                "last"
              ],
              "displayMode": "table",
              "placement": "bottom"
            },
            "tooltip": {
              "mode": "multi",
              "sort": "desc"
            }
          },
          "targets": [
            {
              "datasource": {
                "type": "mysql",
                "uid": "VGpHWV5Vk"
              },
              "format": "time_series",
              "group": [],
              "hide": false,
              "metricColumn": "none",
              "rawQuery": true,
              "rawSql": "SELECT \n`ac_key_LHCb-Production_DataOperation_FinalStatus`.`value`,\n`ac_bucket_LHCb-Production_DataOperation`.`startTime` as time,\n(SUM(`ac_bucket_LHCb-Production_DataOperation`.`TransferTotal`)) / `ac_bucket_LHCb-Production_DataOperation`.`bucketLength` * 3600 as metric\nFROM\n`ac_bucket_LHCb-Production_DataOperation`,\n`ac_key_LHCb-Production_DataOperation_FinalStatus`\nWHERE $__unixEpochFilter(`ac_bucket_LHCb-Production_DataOperation`.`startTime`)\nAND `ac_bucket_LHCb-Production_DataOperation`.`FinalStatus` = `ac_key_LHCb-Production_DataOperation_FinalStatus`.`id`\nGROUP BY\nstartTime,  \n`ac_key_LHCb-Production_DataOperation_FinalStatus`.value,\nbucketlength",
              "refId": "A",
              "select": [
                [
                  {
                    "params": [
                      "endTime"
                    ],
                    "type": "column"
                  }
                ]
              ],
              "table": "ac_in_LHCb-Production_DataOperation",
              "timeColumn": "takenSince",
              "timeColumnType": "timestamp",
              "where": [
                {
                  "name": "$__timeFilter",
                  "params": [],
                  "type": "macro"
                }
              ]
            }
          ],
          "title": "DM Download All Sites, All SEs",
          "transformations": [
            {
              "id": "renameByRegex",
              "options": {
                "regex": "metric ",
                "renamePattern": ""
              }
            }
          ],
          "type": "timeseries"
        },
        {
          "datasource": {
            "type": "mysql",
            "uid": "VGpHWV5Vk"
          },
          "fieldConfig": {
            "defaults": {
              "color": {
                "mode": "palette-classic"
              },
              "custom": {
                "axisLabel": "files/hour",
                "axisPlacement": "auto",
                "barAlignment": 0,
                "drawStyle": "line",
                "fillOpacity": 20,
                "gradientMode": "none",
                "hideFrom": {
                  "legend": false,
                  "tooltip": false,
                  "viz": false
                },
                "lineInterpolation": "stepAfter",
                "lineWidth": 1,
                "pointSize": 1,
                "scaleDistribution": {
                  "type": "linear"
                },
                "showPoints": "auto",
                "spanNulls": false,
                "stacking": {
                  "group": "A",
                  "mode": "normal"
                },
                "thresholdsStyle": {
                  "mode": "off"
                }
              },
              "mappings": [],
              "noValue": "0",
              "thresholds": {
                "mode": "absolute",
                "steps": [
                  {
                    "color": "green",
                    "value": null
                  },
                  {
                    "color": "red",
                    "value": 80
                  }
                ]
              },
              "unit": "si:"
            },
            "overrides": []
          },
          "gridPos": {
            "h": 10,
            "w": 12,
            "x": 12,
            "y": 1
          },
          "id": 7,
          "options": {
            "legend": {
              "calcs": [
                "max",
                "mean",
                "min",
                "last"
              ],
              "displayMode": "table",
              "placement": "bottom"
            },
            "tooltip": {
              "mode": "multi",
              "sort": "desc"
            }
          },
          "targets": [
            {
              "datasource": {
                "type": "mysql",
                "uid": "VGpHWV5Vk"
              },
              "format": "time_series",
              "group": [],
              "hide": false,
              "metricColumn": "none",
              "rawQuery": true,
              "rawSql": "SELECT\nCONCAT( `ac_key_LHCb-Production_DataOperation_Source`.`value`, ' -> ', `ac_key_LHCb-Production_DataOperation_Destination`.`value` ),\n`ac_bucket_LHCb-Production_DataOperation`.`startTime` as time,\n-- SUM(`ac_bucket_LHCb-Production_DataOperation`.`TransferOK`),\nSUM(`ac_bucket_LHCb-Production_DataOperation`.`TransferTotal`) / `ac_bucket_LHCb-Production_DataOperation`.`bucketLength` * 3600 as metric\nFROM\n`ac_bucket_LHCb-Production_DataOperation`,\n`ac_key_LHCb-Production_DataOperation_OperationType`,\n`ac_key_LHCb-Production_DataOperation_Source`,\n`ac_key_LHCb-Production_DataOperation_Destination`,\n`ac_key_LHCb-Production_DataOperation_FinalStatus`\nWHERE $__unixEpochFilter(`ac_bucket_LHCb-Production_DataOperation`.`startTime`)\nAND ( `ac_key_LHCb-Production_DataOperation_OperationType`.`value` = \"se.getFile\" )\nAND ( `ac_key_LHCb-Production_DataOperation_FinalStatus`.`value` IN (\"FinishedDirty\", \"Canceled\", \"Failed\" ) )\nAND `ac_bucket_LHCb-Production_DataOperation`.`Source` = `ac_key_LHCb-Production_DataOperation_Source`.`id`\nAND `ac_bucket_LHCb-Production_DataOperation`.`Destination` = `ac_key_LHCb-Production_DataOperation_Destination`.`id`\nAND `ac_bucket_LHCb-Production_DataOperation`.`OperationType` = `ac_key_LHCb-Production_DataOperation_OperationType`.`id`\nAND `ac_bucket_LHCb-Production_DataOperation`.`FinalStatus` = `ac_key_LHCb-Production_DataOperation_FinalStatus`.`id`\nGROUP BY\nstartTime,\n`ac_key_LHCb-Production_DataOperation_Source`.Value,\n`ac_key_LHCb-Production_DataOperation_Destination`.Value,\nbucketlength",
              "refId": "A",
              "select": [
                [
                  {
                    "params": [
                      "endTime"
                    ],
                    "type": "column"
                  }
                ]
              ],
              "table": "ac_in_LHCb-Production_DataOperation",
              "timeColumn": "takenSince",
              "timeColumnType": "timestamp",
              "where": [
                {
                  "name": "$__timeFilter",
                  "params": [],
                  "type": "macro"
                }
              ]
            }
          ],
          "title": "Failed DM Downloads By Channel",
          "transformations": [
            {
              "id": "renameByRegex",
              "options": {
                "regex": "metric ",
                "renamePattern": ""
              }
            }
          ],
          "type": "timeseries"
        },
        {
          "datasource": {
            "type": "mysql",
            "uid": "VGpHWV5Vk"
          },
          "fieldConfig": {
            "defaults": {
              "color": {
                "mode": "palette-classic"
              },
              "custom": {
                "axisLabel": "files/hour",
                "axisPlacement": "auto",
                "barAlignment": 0,
                "drawStyle": "line",
                "fillOpacity": 20,
                "gradientMode": "none",
                "hideFrom": {
                  "legend": false,
                  "tooltip": false,
                  "viz": false
                },
                "lineInterpolation": "stepAfter",
                "lineWidth": 1,
                "pointSize": 1,
                "scaleDistribution": {
                  "type": "linear"
                },
                "showPoints": "auto",
                "spanNulls": false,
                "stacking": {
                  "group": "A",
                  "mode": "normal"
                },
                "thresholdsStyle": {
                  "mode": "off"
                }
              },
              "mappings": [],
              "noValue": "0",
              "thresholds": {
                "mode": "absolute",
                "steps": [
                  {
                    "color": "green",
                    "value": null
                  },
                  {
                    "color": "red",
                    "value": 80
                  }
                ]
              },
              "unit": "si:"
            },
            "overrides": []
          },
          "gridPos": {
            "h": 10,
            "w": 12,
            "x": 0,
            "y": 11
          },
          "id": 15,
          "options": {
            "legend": {
              "calcs": [
                "max",
                "mean",
                "min",
                "last"
              ],
              "displayMode": "table",
              "placement": "bottom",
              "sortBy": "Max",
              "sortDesc": true
            },
            "tooltip": {
              "mode": "multi",
              "sort": "desc"
            }
          },
          "targets": [
            {
              "datasource": {
                "type": "mysql",
                "uid": "VGpHWV5Vk"
              },
              "format": "time_series",
              "group": [],
              "hide": false,
              "metricColumn": "none",
              "rawQuery": true,
              "rawSql": "SELECT\n`ac_key_LHCb-Production_DataOperation_Source`.`value`,\n`ac_bucket_LHCb-Production_DataOperation`.`startTime` as time,\n-- SUM(`ac_bucket_LHCb-Production_DataOperation`.`TransferOK`),\nSUM(`ac_bucket_LHCb-Production_DataOperation`.`TransferTotal`) / `ac_bucket_LHCb-Production_DataOperation`.`bucketLength` * 3600 as metric\nFROM\n`ac_bucket_LHCb-Production_DataOperation`,\n`ac_key_LHCb-Production_DataOperation_OperationType`,\n`ac_key_LHCb-Production_DataOperation_Source`,\n`ac_key_LHCb-Production_DataOperation_FinalStatus`\nWHERE $__unixEpochFilter(`ac_bucket_LHCb-Production_DataOperation`.`startTime`)\nAND ( `ac_key_LHCb-Production_DataOperation_OperationType`.`value` = \"se.getFile\" )\nAND ( `ac_key_LHCb-Production_DataOperation_FinalStatus`.`value` IN (\"FinishedDirty\", \"Canceled\", \"Failed\" ) )\nAND `ac_bucket_LHCb-Production_DataOperation`.`Source` = `ac_key_LHCb-Production_DataOperation_Source`.`id`\nAND `ac_bucket_LHCb-Production_DataOperation`.`OperationType` = `ac_key_LHCb-Production_DataOperation_OperationType`.`id`\nAND `ac_bucket_LHCb-Production_DataOperation`.`FinalStatus` = `ac_key_LHCb-Production_DataOperation_FinalStatus`.`id`\nGROUP BY\nstartTime,\n`ac_key_LHCb-Production_DataOperation_Source`.Value,\nbucketlength",
              "refId": "A",
              "select": [
                [
                  {
                    "params": [
                      "endTime"
                    ],
                    "type": "column"
                  }
                ]
              ],
              "table": "ac_in_LHCb-Production_DataOperation",
              "timeColumn": "takenSince",
              "timeColumnType": "timestamp",
              "where": [
                {
                  "name": "$__timeFilter",
                  "params": [],
                  "type": "macro"
                }
              ]
            }
          ],
          "title": "Failed DM Downloads By Source",
          "transformations": [
            {
              "id": "renameByRegex",
              "options": {
                "regex": "metric ",
                "renamePattern": ""
              }
            }
          ],
          "type": "timeseries"
        },
        {
          "datasource": {
            "type": "mysql",
            "uid": "VGpHWV5Vk"
          },
          "fieldConfig": {
            "defaults": {
              "color": {
                "mode": "palette-classic"
              },
              "custom": {
                "axisLabel": "files/hour",
                "axisPlacement": "auto",
                "barAlignment": 0,
                "drawStyle": "line",
                "fillOpacity": 20,
                "gradientMode": "none",
                "hideFrom": {
                  "legend": false,
                  "tooltip": false,
                  "viz": false
                },
                "lineInterpolation": "stepAfter",
                "lineWidth": 1,
                "pointSize": 1,
                "scaleDistribution": {
                  "type": "linear"
                },
                "showPoints": "auto",
                "spanNulls": false,
                "stacking": {
                  "group": "A",
                  "mode": "normal"
                },
                "thresholdsStyle": {
                  "mode": "off"
                }
              },
              "mappings": [],
              "noValue": "0",
              "thresholds": {
                "mode": "absolute",
                "steps": [
                  {
                    "color": "green",
                    "value": null
                  },
                  {
                    "color": "red",
                    "value": 80
                  }
                ]
              },
              "unit": "si:"
            },
            "overrides": []
          },
          "gridPos": {
            "h": 10,
            "w": 12,
            "x": 12,
            "y": 11
          },
          "id": 16,
          "options": {
            "legend": {
              "calcs": [
                "max",
                "mean",
                "min",
                "last"
              ],
              "displayMode": "table",
              "placement": "bottom",
              "sortBy": "Max",
              "sortDesc": true
            },
            "tooltip": {
              "mode": "multi",
              "sort": "desc"
            }
          },
          "targets": [
            {
              "datasource": {
                "type": "mysql",
                "uid": "VGpHWV5Vk"
              },
              "format": "time_series",
              "group": [],
              "hide": false,
              "metricColumn": "none",
              "rawQuery": true,
              "rawSql": "SELECT\n`ac_key_LHCb-Production_DataOperation_Destination`.`value`,\n`ac_bucket_LHCb-Production_DataOperation`.`startTime` as time,\n-- SUM(`ac_bucket_LHCb-Production_DataOperation`.`TransferOK`),\nSUM(`ac_bucket_LHCb-Production_DataOperation`.`TransferTotal`) / `ac_bucket_LHCb-Production_DataOperation`.`bucketLength` * 3600 as metric\nFROM\n`ac_bucket_LHCb-Production_DataOperation`,\n`ac_key_LHCb-Production_DataOperation_OperationType`,\n`ac_key_LHCb-Production_DataOperation_Destination`,\n`ac_key_LHCb-Production_DataOperation_FinalStatus`\nWHERE $__unixEpochFilter(`ac_bucket_LHCb-Production_DataOperation`.`startTime`)\nAND ( `ac_key_LHCb-Production_DataOperation_OperationType`.`value` = \"se.getFile\" )\nAND ( `ac_key_LHCb-Production_DataOperation_FinalStatus`.`value` IN (\"FinishedDirty\", \"Canceled\", \"Failed\" ) )\nAND `ac_bucket_LHCb-Production_DataOperation`.`Destination` = `ac_key_LHCb-Production_DataOperation_Destination`.`id`\nAND `ac_bucket_LHCb-Production_DataOperation`.`OperationType` = `ac_key_LHCb-Production_DataOperation_OperationType`.`id`\nAND `ac_bucket_LHCb-Production_DataOperation`.`FinalStatus` = `ac_key_LHCb-Production_DataOperation_FinalStatus`.`id`\nGROUP BY\nstartTime,\n`ac_key_LHCb-Production_DataOperation_Destination`.Value,\nbucketlength",
              "refId": "A",
              "select": [
                [
                  {
                    "params": [
                      "endTime"
                    ],
                    "type": "column"
                  }
                ]
              ],
              "table": "ac_in_LHCb-Production_DataOperation",
              "timeColumn": "takenSince",
              "timeColumnType": "timestamp",
              "where": [
                {
                  "name": "$__timeFilter",
                  "params": [],
                  "type": "macro"
                }
              ]
            }
          ],
          "title": "Failed DM Downloads By Destination",
          "transformations": [
            {
              "id": "renameByRegex",
              "options": {
                "regex": "metric ",
                "renamePattern": ""
              }
            }
          ],
          "type": "timeseries"
        }
      ],
      "title": "Downloads",
      "type": "row"
    },
    {
      "collapsed": true,
      "gridPos": {
        "h": 1,
        "w": 24,
        "x": 0,
        "y": 1
      },
      "id": 14,
      "panels": [
        {
          "datasource": {
            "type": "mysql",
            "uid": "VGpHWV5Vk"
          },
          "fieldConfig": {
            "defaults": {
              "color": {
                "mode": "palette-classic"
              },
              "custom": {
                "axisLabel": "files/hour",
                "axisPlacement": "auto",
                "barAlignment": 0,
                "drawStyle": "line",
                "fillOpacity": 20,
                "gradientMode": "none",
                "hideFrom": {
                  "legend": false,
                  "tooltip": false,
                  "viz": false
                },
                "lineInterpolation": "stepAfter",
                "lineWidth": 1,
                "pointSize": 1,
                "scaleDistribution": {
                  "type": "linear"
                },
                "showPoints": "auto",
                "spanNulls": false,
                "stacking": {
                  "group": "A",
                  "mode": "normal"
                },
                "thresholdsStyle": {
                  "mode": "off"
                }
              },
              "mappings": [],
              "noValue": "0",
              "thresholds": {
                "mode": "absolute",
                "steps": [
                  {
                    "color": "green",
                    "value": null
                  },
                  {
                    "color": "red",
                    "value": 80
                  }
                ]
              },
              "unit": "si:"
            },
            "overrides": []
          },
          "gridPos": {
            "h": 10,
            "w": 12,
            "x": 0,
            "y": 2
          },
          "id": 4,
          "options": {
            "legend": {
              "calcs": [
                "max",
                "mean",
                "min",
                "last"
              ],
              "displayMode": "table",
              "placement": "bottom"
            },
            "tooltip": {
              "mode": "multi",
              "sort": "desc"
            }
          },
          "targets": [
            {
              "datasource": {
                "type": "mysql",
                "uid": "VGpHWV5Vk"
              },
              "format": "time_series",
              "group": [],
              "metricColumn": "none",
              "rawQuery": true,
              "rawSql": "SELECT\n`ac_key_LHCb-Production_DataOperation_FinalStatus`.`value`,\n`ac_bucket_LHCb-Production_DataOperation`.`startTime` as time,\n-- SUM(`ac_bucket_LHCb-Production_DataOperation`.`TransferOK`),\nSUM(`ac_bucket_LHCb-Production_DataOperation`.`TransferTotal`) / `ac_bucket_LHCb-Production_DataOperation`.`bucketLength` * 3600 as metric\nFROM\n`ac_bucket_LHCb-Production_DataOperation`,\n`ac_key_LHCb-Production_DataOperation_OperationType`,\n`ac_key_LHCb-Production_DataOperation_FinalStatus`\nWHERE $__unixEpochFilter(`ac_bucket_LHCb-Production_DataOperation`.`startTime`)\nAND ( `ac_key_LHCb-Production_DataOperation_OperationType`.`value` = \"se.putFile\" )\nAND `ac_bucket_LHCb-Production_DataOperation`.`FinalStatus` = `ac_key_LHCb-Production_DataOperation_FinalStatus`.`id`\nAND `ac_bucket_LHCb-Production_DataOperation`.`OperationType` = `ac_key_LHCb-Production_DataOperation_OperationType`.`id`\nGROUP BY\nstartTime,\n`ac_key_LHCb-Production_DataOperation_FinalStatus`.value,\nbucketlength",
              "refId": "A",
              "select": [
                [
                  {
                    "params": [
                      "endTime"
                    ],
                    "type": "column"
                  }
                ]
              ],
              "table": "ac_in_LHCb-Production_DataOperation",
              "timeColumn": "takenSince",
              "timeColumnType": "timestamp",
              "where": [
                {
                  "name": "$__timeFilter",
                  "params": [],
                  "type": "macro"
                }
              ]
            }
          ],
          "title": "DM Uploads, All SEs",
          "transformations": [
            {
              "id": "renameByRegex",
              "options": {
                "regex": "metric ",
                "renamePattern": ""
              }
            }
          ],
          "type": "timeseries"
        },
        {
          "datasource": {
            "type": "mysql",
            "uid": "VGpHWV5Vk"
          },
          "fieldConfig": {
            "defaults": {
              "color": {
                "mode": "palette-classic"
              },
              "custom": {
                "axisLabel": "files/hour",
                "axisPlacement": "auto",
                "barAlignment": 0,
                "drawStyle": "line",
                "fillOpacity": 20,
                "gradientMode": "none",
                "hideFrom": {
                  "legend": false,
                  "tooltip": false,
                  "viz": false
                },
                "lineInterpolation": "stepAfter",
                "lineWidth": 1,
                "pointSize": 1,
                "scaleDistribution": {
                  "type": "linear"
                },
                "showPoints": "auto",
                "spanNulls": false,
                "stacking": {
                  "group": "A",
                  "mode": "normal"
                },
                "thresholdsStyle": {
                  "mode": "off"
                }
              },
              "mappings": [],
              "noValue": "0",
              "thresholds": {
                "mode": "absolute",
                "steps": [
                  {
                    "color": "green",
                    "value": null
                  },
                  {
                    "color": "red",
                    "value": 80
                  }
                ]
              },
              "unit": "si:"
            },
            "overrides": []
          },
          "gridPos": {
            "h": 10,
            "w": 12,
            "x": 12,
            "y": 2
          },
          "id": 6,
          "options": {
            "legend": {
              "calcs": [
                "max",
                "mean",
                "min",
                "last"
              ],
              "displayMode": "table",
              "placement": "bottom"
            },
            "tooltip": {
              "mode": "multi",
              "sort": "desc"
            }
          },
          "targets": [
            {
              "datasource": {
                "type": "mysql",
                "uid": "VGpHWV5Vk"
              },
              "format": "time_series",
              "group": [],
              "hide": false,
              "metricColumn": "none",
              "rawQuery": true,
              "rawSql": "SELECT\nCONCAT( `ac_key_LHCb-Production_DataOperation_Source`.`value`, ' -> ', `ac_key_LHCb-Production_DataOperation_Destination`.`value` ),\n`ac_bucket_LHCb-Production_DataOperation`.`startTime` as time,\n-- SUM(`ac_bucket_LHCb-Production_DataOperation`.`TransferOK`),\nSUM(`ac_bucket_LHCb-Production_DataOperation`.`TransferTotal`) / `ac_bucket_LHCb-Production_DataOperation`.`bucketLength` * 3600 as metric\nFROM\n`ac_bucket_LHCb-Production_DataOperation`,\n`ac_key_LHCb-Production_DataOperation_OperationType`,\n`ac_key_LHCb-Production_DataOperation_Source`,\n`ac_key_LHCb-Production_DataOperation_Destination`,\n`ac_key_LHCb-Production_DataOperation_FinalStatus`\nWHERE $__unixEpochFilter(`ac_bucket_LHCb-Production_DataOperation`.`startTime`)\nAND ( `ac_key_LHCb-Production_DataOperation_OperationType`.`value` = \"se.putFile\" )\nAND ( `ac_key_LHCb-Production_DataOperation_FinalStatus`.`value` IN (\"FinishedDirty\", \"Canceled\", \"Failed\" ) )\nAND `ac_bucket_LHCb-Production_DataOperation`.`Source` = `ac_key_LHCb-Production_DataOperation_Source`.`id`\nAND `ac_bucket_LHCb-Production_DataOperation`.`Destination` = `ac_key_LHCb-Production_DataOperation_Destination`.`id`\nAND `ac_bucket_LHCb-Production_DataOperation`.`OperationType` = `ac_key_LHCb-Production_DataOperation_OperationType`.`id`\nAND `ac_bucket_LHCb-Production_DataOperation`.`FinalStatus` = `ac_key_LHCb-Production_DataOperation_FinalStatus`.`id`\nGROUP BY\nstartTime,\n`ac_key_LHCb-Production_DataOperation_Source`.Value,\n`ac_key_LHCb-Production_DataOperation_Destination`.Value,\nbucketlength",
              "refId": "A",
              "select": [
                [
                  {
                    "params": [
                      "endTime"
                    ],
                    "type": "column"
                  }
                ]
              ],
              "table": "ac_in_LHCb-Production_DataOperation",
              "timeColumn": "takenSince",
              "timeColumnType": "timestamp",
              "where": [
                {
                  "name": "$__timeFilter",
                  "params": [],
                  "type": "macro"
                }
              ]
            }
          ],
          "title": "Failed DM Uploads By Channel",
          "transformations": [
            {
              "id": "renameByRegex",
              "options": {
                "regex": "metric ",
                "renamePattern": ""
              }
            }
          ],
          "type": "timeseries"
        },
        {
          "datasource": {
            "type": "mysql",
            "uid": "VGpHWV5Vk"
          },
          "fieldConfig": {
            "defaults": {
              "color": {
                "mode": "palette-classic"
              },
              "custom": {
                "axisLabel": "files/hour",
                "axisPlacement": "auto",
                "barAlignment": 0,
                "drawStyle": "line",
                "fillOpacity": 20,
                "gradientMode": "none",
                "hideFrom": {
                  "legend": false,
                  "tooltip": false,
                  "viz": false
                },
                "lineInterpolation": "stepAfter",
                "lineWidth": 1,
                "pointSize": 1,
                "scaleDistribution": {
                  "type": "linear"
                },
                "showPoints": "auto",
                "spanNulls": false,
                "stacking": {
                  "group": "A",
                  "mode": "normal"
                },
                "thresholdsStyle": {
                  "mode": "off"
                }
              },
              "mappings": [],
              "noValue": "0",
              "thresholds": {
                "mode": "absolute",
                "steps": [
                  {
                    "color": "green",
                    "value": null
                  },
                  {
                    "color": "red",
                    "value": 80
                  }
                ]
              },
              "unit": "si:"
            },
            "overrides": []
          },
          "gridPos": {
            "h": 10,
            "w": 12,
            "x": 0,
            "y": 12
          },
          "id": 9,
          "options": {
            "legend": {
              "calcs": [
                "max",
                "mean",
                "min",
                "last"
              ],
              "displayMode": "table",
              "placement": "bottom",
              "sortBy": "Max",
              "sortDesc": true
            },
            "tooltip": {
              "mode": "multi",
              "sort": "desc"
            }
          },
          "targets": [
            {
              "datasource": {
                "type": "mysql",
                "uid": "VGpHWV5Vk"
              },
              "format": "time_series",
              "group": [],
              "hide": false,
              "metricColumn": "none",
              "rawQuery": true,
              "rawSql": "SELECT\n`ac_key_LHCb-Production_DataOperation_Source`.`value`,\n`ac_bucket_LHCb-Production_DataOperation`.`startTime` as time,\n-- SUM(`ac_bucket_LHCb-Production_DataOperation`.`TransferOK`),\nSUM(`ac_bucket_LHCb-Production_DataOperation`.`TransferTotal`) / `ac_bucket_LHCb-Production_DataOperation`.`bucketLength` * 3600 as metric\nFROM\n`ac_bucket_LHCb-Production_DataOperation`,\n`ac_key_LHCb-Production_DataOperation_OperationType`,\n`ac_key_LHCb-Production_DataOperation_Source`,\n`ac_key_LHCb-Production_DataOperation_FinalStatus`\nWHERE $__unixEpochFilter(`ac_bucket_LHCb-Production_DataOperation`.`startTime`)\nAND ( `ac_key_LHCb-Production_DataOperation_OperationType`.`value` = \"se.putFile\" )\nAND ( `ac_key_LHCb-Production_DataOperation_FinalStatus`.`value` IN (\"FinishedDirty\", \"Canceled\", \"Failed\" ) )\nAND `ac_bucket_LHCb-Production_DataOperation`.`Source` = `ac_key_LHCb-Production_DataOperation_Source`.`id`\nAND `ac_bucket_LHCb-Production_DataOperation`.`OperationType` = `ac_key_LHCb-Production_DataOperation_OperationType`.`id`\nAND `ac_bucket_LHCb-Production_DataOperation`.`FinalStatus` = `ac_key_LHCb-Production_DataOperation_FinalStatus`.`id`\nGROUP BY\nstartTime,\n`ac_key_LHCb-Production_DataOperation_Source`.Value,\nbucketlength",
              "refId": "A",
              "select": [
                [
                  {
                    "params": [
                      "endTime"
                    ],
                    "type": "column"
                  }
                ]
              ],
              "table": "ac_in_LHCb-Production_DataOperation",
              "timeColumn": "takenSince",
              "timeColumnType": "timestamp",
              "where": [
                {
                  "name": "$__timeFilter",
                  "params": [],
                  "type": "macro"
                }
              ]
            }
          ],
          "title": "Failed DM Uploads By Source",
          "transformations": [
            {
              "id": "renameByRegex",
              "options": {
                "regex": "metric ",
                "renamePattern": ""
              }
            }
          ],
          "type": "timeseries"
        },
        {
          "datasource": {
            "type": "mysql",
            "uid": "VGpHWV5Vk"
          },
          "fieldConfig": {
            "defaults": {
              "color": {
                "mode": "palette-classic"
              },
              "custom": {
                "axisLabel": "files/hour",
                "axisPlacement": "auto",
                "barAlignment": 0,
                "drawStyle": "line",
                "fillOpacity": 20,
                "gradientMode": "none",
                "hideFrom": {
                  "legend": false,
                  "tooltip": false,
                  "viz": false
                },
                "lineInterpolation": "stepAfter",
                "lineWidth": 1,
                "pointSize": 1,
                "scaleDistribution": {
                  "type": "linear"
                },
                "showPoints": "auto",
                "spanNulls": false,
                "stacking": {
                  "group": "A",
                  "mode": "normal"
                },
                "thresholdsStyle": {
                  "mode": "off"
                }
              },
              "mappings": [],
              "noValue": "0",
              "thresholds": {
                "mode": "absolute",
                "steps": [
                  {
                    "color": "green",
                    "value": null
                  },
                  {
                    "color": "red",
                    "value": 80
                  }
                ]
              },
              "unit": "si:"
            },
            "overrides": []
          },
          "gridPos": {
            "h": 10,
            "w": 12,
            "x": 12,
            "y": 12
          },
          "id": 10,
          "options": {
            "legend": {
              "calcs": [
                "max",
                "mean",
                "min",
                "last"
              ],
              "displayMode": "table",
              "placement": "bottom",
              "sortBy": "Max",
              "sortDesc": true
            },
            "tooltip": {
              "mode": "multi",
              "sort": "desc"
            }
          },
          "targets": [
            {
              "datasource": {
                "type": "mysql",
                "uid": "VGpHWV5Vk"
              },
              "format": "time_series",
              "group": [],
              "hide": false,
              "metricColumn": "none",
              "rawQuery": true,
              "rawSql": "SELECT\n`ac_key_LHCb-Production_DataOperation_Destination`.`value`,\n`ac_bucket_LHCb-Production_DataOperation`.`startTime` as time,\n-- SUM(`ac_bucket_LHCb-Production_DataOperation`.`TransferOK`),\nSUM(`ac_bucket_LHCb-Production_DataOperation`.`TransferTotal`) / `ac_bucket_LHCb-Production_DataOperation`.`bucketLength` * 3600 as metric\nFROM\n`ac_bucket_LHCb-Production_DataOperation`,\n`ac_key_LHCb-Production_DataOperation_OperationType`,\n`ac_key_LHCb-Production_DataOperation_Destination`,\n`ac_key_LHCb-Production_DataOperation_FinalStatus`\nWHERE $__unixEpochFilter(`ac_bucket_LHCb-Production_DataOperation`.`startTime`)\nAND ( `ac_key_LHCb-Production_DataOperation_OperationType`.`value` = \"se.putFile\" )\nAND ( `ac_key_LHCb-Production_DataOperation_FinalStatus`.`value` IN (\"FinishedDirty\", \"Canceled\", \"Failed\" ) )\nAND `ac_bucket_LHCb-Production_DataOperation`.`Destination` = `ac_key_LHCb-Production_DataOperation_Destination`.`id`\nAND `ac_bucket_LHCb-Production_DataOperation`.`OperationType` = `ac_key_LHCb-Production_DataOperation_OperationType`.`id`\nAND `ac_bucket_LHCb-Production_DataOperation`.`FinalStatus` = `ac_key_LHCb-Production_DataOperation_FinalStatus`.`id`\nGROUP BY\nstartTime,\n`ac_key_LHCb-Production_DataOperation_Destination`.Value,\nbucketlength",
              "refId": "A",
              "select": [
                [
                  {
                    "params": [
                      "endTime"
                    ],
                    "type": "column"
                  }
                ]
              ],
              "table": "ac_in_LHCb-Production_DataOperation",
              "timeColumn": "takenSince",
              "timeColumnType": "timestamp",
              "where": [
                {
                  "name": "$__timeFilter",
                  "params": [],
                  "type": "macro"
                }
              ]
            }
          ],
          "title": "Failed DM Uploads By Destination",
          "transformations": [
            {
              "id": "renameByRegex",
              "options": {
                "regex": "metric ",
                "renamePattern": ""
              }
            }
          ],
          "type": "timeseries"
        }
      ],
      "title": "Uploads",
      "type": "row"
    },
    {
      "collapsed": true,
      "gridPos": {
        "h": 1,
        "w": 24,
        "x": 0,
        "y": 2
      },
      "id": 18,
      "panels": [
        {
          "datasource": {
            "type": "mysql",
            "uid": "VGpHWV5Vk"
          },
          "fieldConfig": {
            "defaults": {
              "color": {
                "mode": "palette-classic"
              },
              "custom": {
                "axisLabel": "files/hour",
                "axisPlacement": "auto",
                "barAlignment": 0,
                "drawStyle": "line",
                "fillOpacity": 20,
                "gradientMode": "none",
                "hideFrom": {
                  "legend": false,
                  "tooltip": false,
                  "viz": false
                },
                "lineInterpolation": "stepAfter",
                "lineWidth": 1,
                "pointSize": 1,
                "scaleDistribution": {
                  "type": "linear"
                },
                "showPoints": "auto",
                "spanNulls": false,
                "stacking": {
                  "group": "A",
                  "mode": "normal"
                },
                "thresholdsStyle": {
                  "mode": "off"
                }
              },
              "mappings": [],
              "noValue": "0",
              "thresholds": {
                "mode": "absolute",
                "steps": [
                  {
                    "color": "green",
                    "value": null
                  },
                  {
                    "color": "red",
                    "value": 80
                  }
                ]
              },
              "unit": "si:"
            },
            "overrides": []
          },
          "gridPos": {
            "h": 10,
            "w": 12,
            "x": 0,
            "y": 3
          },
          "id": 20,
          "options": {
            "legend": {
              "calcs": [
                "max",
                "mean",
                "min",
                "last"
              ],
              "displayMode": "table",
              "placement": "bottom",
              "sortBy": "Max",
              "sortDesc": true
            },
            "tooltip": {
              "mode": "multi",
              "sort": "desc"
            }
          },
          "targets": [
            {
              "datasource": {
                "type": "mysql",
                "uid": "VGpHWV5Vk"
              },
              "format": "time_series",
              "group": [],
              "hide": false,
              "metricColumn": "none",
              "rawQuery": true,
              "rawSql": "SELECT\n`ac_key_LHCb-Production_DataOperation_FinalStatus`.`value`,\n`ac_bucket_LHCb-Production_DataOperation`.`startTime` as time,\n-- SUM(`ac_bucket_LHCb-Production_DataOperation`.`TransferOK`),\nSUM(`ac_bucket_LHCb-Production_DataOperation`.`TransferTotal`) / `ac_bucket_LHCb-Production_DataOperation`.`bucketLength` * 3600 as metric\nFROM\n`ac_bucket_LHCb-Production_DataOperation`,\n`ac_key_LHCb-Production_DataOperation_Protocol`,\n`ac_key_LHCb-Production_DataOperation_FinalStatus`\nWHERE $__unixEpochFilter(`ac_bucket_LHCb-Production_DataOperation`.`startTime`)\nAND ( `ac_key_LHCb-Production_DataOperation_Protocol`.`value` IN ( \"FTS3\", \"FTS\" ) )\nAND `ac_bucket_LHCb-Production_DataOperation`.`Protocol` = `ac_key_LHCb-Production_DataOperation_Protocol`.`id`\nAND `ac_bucket_LHCb-Production_DataOperation`.`FinalStatus` = `ac_key_LHCb-Production_DataOperation_FinalStatus`.`id`\nGROUP BY\nstartTime,\n`ac_key_LHCb-Production_DataOperation_FinalStatus`.Value,\nbucketlength",
              "refId": "A",
              "select": [
                [
                  {
                    "params": [
                      "endTime"
                    ],
                    "type": "column"
                  }
                ]
              ],
              "table": "ac_in_LHCb-Production_DataOperation",
              "timeColumn": "takenSince",
              "timeColumnType": "timestamp",
              "where": [
                {
                  "name": "$__timeFilter",
                  "params": [],
                  "type": "macro"
                }
              ]
            }
          ],
          "title": "All FTS Transfers By FinalStatus",
          "transformations": [
            {
              "id": "renameByRegex",
              "options": {
                "regex": "metric ",
                "renamePattern": ""
              }
            }
          ],
          "type": "timeseries"
        },
        {
          "datasource": {
            "type": "mysql",
            "uid": "VGpHWV5Vk"
          },
          "fieldConfig": {
            "defaults": {
              "color": {
                "mode": "palette-classic"
              },
              "custom": {
                "axisLabel": "files/hour",
                "axisPlacement": "auto",
                "barAlignment": 0,
                "drawStyle": "bars",
                "fillOpacity": 20,
                "gradientMode": "none",
                "hideFrom": {
                  "legend": false,
                  "tooltip": false,
                  "viz": false
                },
                "lineInterpolation": "stepAfter",
                "lineWidth": 1,
                "pointSize": 1,
                "scaleDistribution": {
                  "type": "linear"
                },
                "showPoints": "auto",
                "spanNulls": false,
                "stacking": {
                  "group": "A",
                  "mode": "normal"
                },
                "thresholdsStyle": {
                  "mode": "off"
                }
              },
              "mappings": [],
              "noValue": "0",
              "thresholds": {
                "mode": "absolute",
                "steps": [
                  {
                    "color": "green",
                    "value": null
                  },
                  {
                    "color": "red",
                    "value": 80
                  }
                ]
              },
              "unit": "si:"
            },
            "overrides": []
          },
          "gridPos": {
            "h": 10,
            "w": 12,
            "x": 12,
            "y": 3
          },
          "id": 21,
          "options": {
            "legend": {
              "calcs": [
                "max",
                "mean",
                "min",
                "last"
              ],
              "displayMode": "table",
              "placement": "bottom"
            },
            "tooltip": {
              "mode": "multi",
              "sort": "desc"
            }
          },
          "targets": [
            {
              "datasource": {
                "type": "mysql",
                "uid": "VGpHWV5Vk"
              },
              "format": "time_series",
              "group": [],
              "hide": false,
              "metricColumn": "none",
              "rawQuery": true,
              "rawSql": "SELECT\nCONCAT( `ac_key_LHCb-Production_DataOperation_Source`.`value`, ' -> ', `ac_key_LHCb-Production_DataOperation_Destination`.`value` ),\n`ac_bucket_LHCb-Production_DataOperation`.`startTime` as time,\n-- SUM(`ac_bucket_LHCb-Production_DataOperation`.`TransferOK`),\nSUM(`ac_bucket_LHCb-Production_DataOperation`.`TransferTotal`) / `ac_bucket_LHCb-Production_DataOperation`.`bucketLength` * 3600 as metric\nFROM\n`ac_bucket_LHCb-Production_DataOperation`,\n`ac_key_LHCb-Production_DataOperation_Protocol`,\n`ac_key_LHCb-Production_DataOperation_Source`,\n`ac_key_LHCb-Production_DataOperation_Destination`,\n`ac_key_LHCb-Production_DataOperation_FinalStatus`\nWHERE $__unixEpochFilter(`ac_bucket_LHCb-Production_DataOperation`.`startTime`)\nAND ( `ac_key_LHCb-Production_DataOperation_Protocol`.`value` IN ( \"FTS3\", \"FTS\" ) )\nAND ( `ac_key_LHCb-Production_DataOperation_FinalStatus`.`value` IN (\"FinishedDirty\", \"Canceled\", \"Failed\" ) )\nAND `ac_bucket_LHCb-Production_DataOperation`.`Source` = `ac_key_LHCb-Production_DataOperation_Source`.`id`\nAND `ac_bucket_LHCb-Production_DataOperation`.`Destination` = `ac_key_LHCb-Production_DataOperation_Destination`.`id`\nAND `ac_bucket_LHCb-Production_DataOperation`.`Protocol` = `ac_key_LHCb-Production_DataOperation_Protocol`.`id`\nAND `ac_bucket_LHCb-Production_DataOperation`.`FinalStatus` = `ac_key_LHCb-Production_DataOperation_FinalStatus`.`id`\nGROUP BY\nstartTime,\n`ac_key_LHCb-Production_DataOperation_Source`.Value,\n`ac_key_LHCb-Production_DataOperation_Destination`.Value,\nbucketlength",
              "refId": "A",
              "select": [
                [
                  {
                    "params": [
                      "endTime"
                    ],
                    "type": "column"
                  }
                ]
              ],
              "table": "ac_in_LHCb-Production_DataOperation",
              "timeColumn": "takenSince",
              "timeColumnType": "timestamp",
              "where": [
                {
                  "name": "$__timeFilter",
                  "params": [],
                  "type": "macro"
                }
              ]
            }
          ],
          "title": "Failed FTS Transfers By Channel",
          "transformations": [
            {
              "id": "renameByRegex",
              "options": {
                "regex": "metric ",
                "renamePattern": ""
              }
            }
          ],
          "type": "timeseries"
        },
        {
          "datasource": {
            "type": "mysql",
            "uid": "VGpHWV5Vk"
          },
          "fieldConfig": {
            "defaults": {
              "color": {
                "mode": "palette-classic"
              },
              "custom": {
                "axisLabel": "files/hour",
                "axisPlacement": "auto",
                "barAlignment": 0,
                "drawStyle": "bars",
                "fillOpacity": 20,
                "gradientMode": "none",
                "hideFrom": {
                  "legend": false,
                  "tooltip": false,
                  "viz": false
                },
                "lineInterpolation": "stepAfter",
                "lineWidth": 1,
                "pointSize": 1,
                "scaleDistribution": {
                  "type": "linear"
                },
                "showPoints": "auto",
                "spanNulls": false,
                "stacking": {
                  "group": "A",
                  "mode": "normal"
                },
                "thresholdsStyle": {
                  "mode": "off"
                }
              },
              "mappings": [],
              "noValue": "0",
              "thresholds": {
                "mode": "absolute",
                "steps": [
                  {
                    "color": "green",
                    "value": null
                  },
                  {
                    "color": "red",
                    "value": 80
                  }
                ]
              },
              "unit": "si:"
            },
            "overrides": []
          },
          "gridPos": {
            "h": 10,
            "w": 12,
            "x": 0,
            "y": 13
          },
          "id": 22,
          "options": {
            "legend": {
              "calcs": [
                "max",
                "mean",
                "min",
                "last"
              ],
              "displayMode": "table",
              "placement": "bottom",
              "sortBy": "Max",
              "sortDesc": true
            },
            "tooltip": {
              "mode": "multi",
              "sort": "desc"
            }
          },
          "targets": [
            {
              "datasource": {
                "type": "mysql",
                "uid": "VGpHWV5Vk"
              },
              "format": "time_series",
              "group": [],
              "hide": false,
              "metricColumn": "none",
              "rawQuery": true,
              "rawSql": "SELECT\n`ac_key_LHCb-Production_DataOperation_Source`.`value`,\n`ac_bucket_LHCb-Production_DataOperation`.`startTime` as time,\n-- SUM(`ac_bucket_LHCb-Production_DataOperation`.`TransferOK`),\nSUM(`ac_bucket_LHCb-Production_DataOperation`.`TransferTotal`) / `ac_bucket_LHCb-Production_DataOperation`.`bucketLength` * 3600 as metric\nFROM\n`ac_bucket_LHCb-Production_DataOperation`,\n`ac_key_LHCb-Production_DataOperation_Protocol`,\n`ac_key_LHCb-Production_DataOperation_Source`,\n`ac_key_LHCb-Production_DataOperation_FinalStatus`\nWHERE $__unixEpochFilter(`ac_bucket_LHCb-Production_DataOperation`.`startTime`)\nAND ( `ac_key_LHCb-Production_DataOperation_Protocol`.`value` IN ( \"FTS3\", \"FTS\" ) )\nAND ( `ac_key_LHCb-Production_DataOperation_FinalStatus`.`value` IN (\"Failed\", \"FinishedDirty\", \"Canceled\" ) )\nAND `ac_bucket_LHCb-Production_DataOperation`.`Source` = `ac_key_LHCb-Production_DataOperation_Source`.`id`\nAND `ac_bucket_LHCb-Production_DataOperation`.`Protocol` = `ac_key_LHCb-Production_DataOperation_Protocol`.`id`\nAND `ac_bucket_LHCb-Production_DataOperation`.`FinalStatus` = `ac_key_LHCb-Production_DataOperation_FinalStatus`.`id`\nGROUP BY\nstartTime,\n`ac_key_LHCb-Production_DataOperation_Source`.Value,\nbucketlength",
              "refId": "A",
              "select": [
                [
                  {
                    "params": [
                      "endTime"
                    ],
                    "type": "column"
                  }
                ]
              ],
              "table": "ac_in_LHCb-Production_DataOperation",
              "timeColumn": "takenSince",
              "timeColumnType": "timestamp",
              "where": [
                {
                  "name": "$__timeFilter",
                  "params": [],
                  "type": "macro"
                }
              ]
            }
          ],
          "title": "Failed FTS Transfers By Source",
          "transformations": [
            {
              "id": "renameByRegex",
              "options": {
                "regex": "metric ",
                "renamePattern": ""
              }
            }
          ],
          "type": "timeseries"
        },
        {
          "datasource": {
            "type": "mysql",
            "uid": "VGpHWV5Vk"
          },
          "fieldConfig": {
            "defaults": {
              "color": {
                "mode": "palette-classic"
              },
              "custom": {
                "axisLabel": "files/hour",
                "axisPlacement": "auto",
                "barAlignment": 0,
                "drawStyle": "bars",
                "fillOpacity": 20,
                "gradientMode": "none",
                "hideFrom": {
                  "legend": false,
                  "tooltip": false,
                  "viz": false
                },
                "lineInterpolation": "stepAfter",
                "lineWidth": 1,
                "pointSize": 1,
                "scaleDistribution": {
                  "type": "linear"
                },
                "showPoints": "auto",
                "spanNulls": false,
                "stacking": {
                  "group": "A",
                  "mode": "normal"
                },
                "thresholdsStyle": {
                  "mode": "off"
                }
              },
              "mappings": [],
              "noValue": "0",
              "thresholds": {
                "mode": "absolute",
                "steps": [
                  {
                    "color": "green",
                    "value": null
                  },
                  {
                    "color": "red",
                    "value": 80
                  }
                ]
              },
              "unit": "si:"
            },
            "overrides": []
          },
          "gridPos": {
            "h": 10,
            "w": 12,
            "x": 12,
            "y": 13
          },
          "id": 23,
          "options": {
            "legend": {
              "calcs": [
                "max",
                "mean",
                "min",
                "last"
              ],
              "displayMode": "table",
              "placement": "bottom",
              "sortBy": "Max",
              "sortDesc": true
            },
            "tooltip": {
              "mode": "multi",
              "sort": "desc"
            }
          },
          "targets": [
            {
              "datasource": {
                "type": "mysql",
                "uid": "VGpHWV5Vk"
              },
              "format": "time_series",
              "group": [],
              "hide": false,
              "metricColumn": "none",
              "rawQuery": true,
              "rawSql": "SELECT\n`ac_key_LHCb-Production_DataOperation_Destination`.`value`,\n`ac_bucket_LHCb-Production_DataOperation`.`startTime` as time,\n-- SUM(`ac_bucket_LHCb-Production_DataOperation`.`TransferOK`),\nSUM(`ac_bucket_LHCb-Production_DataOperation`.`TransferTotal`) / `ac_bucket_LHCb-Production_DataOperation`.`bucketLength` * 3600 as metric\nFROM\n`ac_bucket_LHCb-Production_DataOperation`,\n`ac_key_LHCb-Production_DataOperation_Protocol`,\n`ac_key_LHCb-Production_DataOperation_Destination`,\n`ac_key_LHCb-Production_DataOperation_FinalStatus`\nWHERE $__unixEpochFilter(`ac_bucket_LHCb-Production_DataOperation`.`startTime`)\nAND ( `ac_key_LHCb-Production_DataOperation_Protocol`.`value` IN ( \"FTS3\", \"FTS\" ) )\nAND ( `ac_key_LHCb-Production_DataOperation_FinalStatus`.`value` IN ( \"FinishedDirty\", \"Canceled\", \"Failed\" ) )\nAND `ac_bucket_LHCb-Production_DataOperation`.`Destination` = `ac_key_LHCb-Production_DataOperation_Destination`.`id`\nAND `ac_bucket_LHCb-Production_DataOperation`.`Protocol` = `ac_key_LHCb-Production_DataOperation_Protocol`.`id`\nAND `ac_bucket_LHCb-Production_DataOperation`.`FinalStatus` = `ac_key_LHCb-Production_DataOperation_FinalStatus`.`id`\nGROUP BY\nstartTime,\n`ac_key_LHCb-Production_DataOperation_Destination`.Value,\nbucketlength",
              "refId": "A",
              "select": [
                [
                  {
                    "params": [
                      "endTime"
                    ],
                    "type": "column"
                  }
                ]
              ],
              "table": "ac_in_LHCb-Production_DataOperation",
              "timeColumn": "takenSince",
              "timeColumnType": "timestamp",
              "where": [
                {
                  "name": "$__timeFilter",
                  "params": [],
                  "type": "macro"
                }
              ]
            }
          ],
          "title": "Failed FTS Transfers By Destination",
          "transformations": [
            {
              "id": "renameByRegex",
              "options": {
                "regex": "metric ",
                "renamePattern": ""
              }
            }
          ],
          "type": "timeseries"
        }
      ],
      "title": "FTS transfers",
      "type": "row"
    },
    {
      "collapsed": true,
      "gridPos": {
        "h": 1,
        "w": 24,
        "x": 0,
        "y": 3
      },
      "id": 25,
      "panels": [
        {
          "datasource": {
            "type": "mysql",
            "uid": "VGpHWV5Vk"
          },
          "fieldConfig": {
            "defaults": {
              "color": {
                "mode": "palette-classic"
              },
              "custom": {
                "axisLabel": "files/hour",
                "axisPlacement": "auto",
                "barAlignment": 0,
                "drawStyle": "line",
                "fillOpacity": 20,
                "gradientMode": "none",
                "hideFrom": {
                  "legend": false,
                  "tooltip": false,
                  "viz": false
                },
                "lineInterpolation": "stepAfter",
                "lineWidth": 1,
                "pointSize": 1,
                "scaleDistribution": {
                  "type": "linear"
                },
                "showPoints": "auto",
                "spanNulls": false,
                "stacking": {
                  "group": "A",
                  "mode": "normal"
                },
                "thresholdsStyle": {
                  "mode": "off"
                }
              },
              "mappings": [],
              "noValue": "0",
              "thresholds": {
                "mode": "absolute",
                "steps": [
                  {
                    "color": "green",
                    "value": null
                  },
                  {
                    "color": "red",
                    "value": 80
                  }
                ]
              },
              "unit": "si:"
            },
            "overrides": []
          },
          "gridPos": {
            "h": 10,
            "w": 12,
            "x": 0,
            "y": 4
          },
          "id": 26,
          "options": {
            "legend": {
              "calcs": [
                "max",
                "mean",
                "min",
                "last"
              ],
              "displayMode": "table",
              "placement": "bottom"
            },
            "tooltip": {
              "mode": "multi",
              "sort": "desc"
            }
          },
          "targets": [
            {
              "datasource": {
                "type": "mysql",
                "uid": "VGpHWV5Vk"
              },
              "format": "time_series",
              "group": [],
              "metricColumn": "none",
              "rawQuery": true,
              "rawSql": "SELECT\n`ac_key_LHCb-Production_DataOperation_FinalStatus`.`value`,\n`ac_bucket_LHCb-Production_DataOperation`.`startTime` as time,\n-- SUM(`ac_bucket_LHCb-Production_DataOperation`.`TransferOK`),\nSUM(`ac_bucket_LHCb-Production_DataOperation`.`TransferTotal`) / `ac_bucket_LHCb-Production_DataOperation`.`bucketLength` * 3600 as metric\nFROM\n`ac_bucket_LHCb-Production_DataOperation`,\n`ac_key_LHCb-Production_DataOperation_OperationType`,\n`ac_key_LHCb-Production_DataOperation_FinalStatus`\nWHERE $__unixEpochFilter(`ac_bucket_LHCb-Production_DataOperation`.`startTime`)\nAND ( `ac_key_LHCb-Production_DataOperation_OperationType`.`value` = \"se.removeFile\" )\nAND `ac_bucket_LHCb-Production_DataOperation`.`FinalStatus` = `ac_key_LHCb-Production_DataOperation_FinalStatus`.`id`\nAND `ac_bucket_LHCb-Production_DataOperation`.`OperationType` = `ac_key_LHCb-Production_DataOperation_OperationType`.`id`\nGROUP BY\nstartTime,\n`ac_key_LHCb-Production_DataOperation_FinalStatus`.value,\nbucketlength",
              "refId": "A",
              "select": [
                [
                  {
                    "params": [
                      "endTime"
                    ],
                    "type": "column"
                  }
                ]
              ],
              "table": "ac_in_LHCb-Production_DataOperation",
              "timeColumn": "takenSince",
              "timeColumnType": "timestamp",
              "where": [
                {
                  "name": "$__timeFilter",
                  "params": [],
                  "type": "macro"
                }
              ]
            }
          ],
          "title": "Removals, All SEs",
          "transformations": [
            {
              "id": "renameByRegex",
              "options": {
                "regex": "metric ",
                "renamePattern": ""
              }
            }
          ],
          "type": "timeseries"
        },
        {
          "datasource": {
            "type": "mysql",
            "uid": "VGpHWV5Vk"
          },
          "fieldConfig": {
            "defaults": {
              "color": {
                "mode": "palette-classic"
              },
              "custom": {
                "axisLabel": "files/hour",
                "axisPlacement": "auto",
                "barAlignment": 0,
                "drawStyle": "line",
                "fillOpacity": 20,
                "gradientMode": "none",
                "hideFrom": {
                  "legend": false,
                  "tooltip": false,
                  "viz": false
                },
                "lineInterpolation": "stepAfter",
                "lineWidth": 1,
                "pointSize": 1,
                "scaleDistribution": {
                  "type": "linear"
                },
                "showPoints": "auto",
                "spanNulls": false,
                "stacking": {
                  "group": "A",
                  "mode": "normal"
                },
                "thresholdsStyle": {
                  "mode": "off"
                }
              },
              "mappings": [],
              "noValue": "0",
              "thresholds": {
                "mode": "absolute",
                "steps": [
                  {
                    "color": "green",
                    "value": null
                  },
                  {
                    "color": "red",
                    "value": 80
                  }
                ]
              },
              "unit": "si:"
            },
            "overrides": []
          },
          "gridPos": {
            "h": 10,
            "w": 12,
            "x": 12,
            "y": 4
          },
          "id": 27,
          "options": {
            "legend": {
              "calcs": [
                "max",
                "mean",
                "min",
                "last"
              ],
              "displayMode": "table",
              "placement": "bottom"
            },
            "tooltip": {
              "mode": "multi",
              "sort": "desc"
            }
          },
          "targets": [
            {
              "datasource": {
                "type": "mysql",
                "uid": "VGpHWV5Vk"
              },
              "format": "time_series",
              "group": [],
              "hide": false,
              "metricColumn": "none",
              "rawQuery": true,
              "rawSql": "SELECT\nCONCAT( `ac_key_LHCb-Production_DataOperation_Source`.`value`, ' -> ', `ac_key_LHCb-Production_DataOperation_Destination`.`value` ),\n`ac_bucket_LHCb-Production_DataOperation`.`startTime` as time,\n-- SUM(`ac_bucket_LHCb-Production_DataOperation`.`TransferOK`),\nSUM(`ac_bucket_LHCb-Production_DataOperation`.`TransferTotal`) / `ac_bucket_LHCb-Production_DataOperation`.`bucketLength` * 3600 as metric\nFROM\n`ac_bucket_LHCb-Production_DataOperation`,\n`ac_key_LHCb-Production_DataOperation_OperationType`,\n`ac_key_LHCb-Production_DataOperation_Source`,\n`ac_key_LHCb-Production_DataOperation_Destination`,\n`ac_key_LHCb-Production_DataOperation_FinalStatus`\nWHERE $__unixEpochFilter(`ac_bucket_LHCb-Production_DataOperation`.`startTime`)\nAND ( `ac_key_LHCb-Production_DataOperation_OperationType`.`value` = \"se.removeFile\" )\nAND ( `ac_key_LHCb-Production_DataOperation_FinalStatus`.`value` IN (\"FinishedDirty\", \"Canceled\", \"Failed\" ) )\nAND `ac_bucket_LHCb-Production_DataOperation`.`Source` = `ac_key_LHCb-Production_DataOperation_Source`.`id`\nAND `ac_bucket_LHCb-Production_DataOperation`.`Destination` = `ac_key_LHCb-Production_DataOperation_Destination`.`id`\nAND `ac_bucket_LHCb-Production_DataOperation`.`OperationType` = `ac_key_LHCb-Production_DataOperation_OperationType`.`id`\nAND `ac_bucket_LHCb-Production_DataOperation`.`FinalStatus` = `ac_key_LHCb-Production_DataOperation_FinalStatus`.`id`\nGROUP BY\nstartTime,\n`ac_key_LHCb-Production_DataOperation_Source`.Value,\n`ac_key_LHCb-Production_DataOperation_Destination`.Value,\nbucketlength",
              "refId": "A",
              "select": [
                [
                  {
                    "params": [
                      "endTime"
                    ],
                    "type": "column"
                  }
                ]
              ],
              "table": "ac_in_LHCb-Production_DataOperation",
              "timeColumn": "takenSince",
              "timeColumnType": "timestamp",
              "where": [
                {
                  "name": "$__timeFilter",
                  "params": [],
                  "type": "macro"
                }
              ]
            }
          ],
          "title": "Failed Removals By Channel",
          "transformations": [
            {
              "id": "renameByRegex",
              "options": {
                "regex": "metric ",
                "renamePattern": ""
              }
            }
          ],
          "type": "timeseries"
        }
      ],
      "title": "Removals",
      "type": "row"
    }
  ],
  "refresh": false,
  "schemaVersion": 36,
  "style": "dark",
  "tags": [],
  "templating": {
    "list": []
  },
  "time": {
    "from": "now-24h",
    "to": "now"
  },
  "timepicker": {},
  "timezone": "",
  "title": "DM Overview",
  "uid": "CSLWIV-4z",
  "version": 3,
  "weekStart": ""
}
