{
  "annotations": {
    "list": [
      {
        "builtIn": 1,
        "datasource": {
          "type": "grafana",
          "uid": "-- Grafana --"
        },
        "enable": true,
        "hide": true,
        "iconColor": "rgba(0, 211, 255, 1)",
        "name": "Annotations & Alerts",
        "target": {
          "limit": 100,
          "matchAny": false,
          "tags": [],
          "type": "dashboard"
        },
        "type": "dashboard"
      }
    ]
  },
  "editable": true,
  "fiscalYearStartMonth": 0,
  "graphTooltip": 0,
  "id": 5383,
  "links": [],
  "liveNow": false,
  "panels": [
    {
      "datasource": {
        "type": "influxdb",
        "uid": "000009465"
      },
      "gridPos": {
        "h": 3,
        "w": 24,
        "x": 0,
        "y": 0
      },
      "id": 15,
      "options": {
        "code": {
          "language": "plaintext",
          "showLineNumbers": false,
          "showMiniMap": false
        },
        "content": "When querying over long time ranges, grafana aggregates (sums) `Metric` over larger time bins than the default ElasticSearch/OpenSearch ones (15m) to lower the number of data points\nit has to plot.\n\nTo account for this, `Metric` is calculated as the `Metric` per 15min, regardless of the actual bin size displayed",
        "mode": "markdown"
      },
      "pluginVersion": "10.1.5",
      "title": "Note",
      "type": "text"
    },
    {
      "datasource": {
        "type": "mysql",
        "uid": "VGpHWV5Vk"
      },
      "fieldConfig": {
        "defaults": {
          "color": {
            "mode": "palette-classic"
          },
          "custom": {
            "axisCenteredZero": false,
            "axisColorMode": "text",
            "axisLabel": "jobs/hour",
            "axisPlacement": "auto",
            "barAlignment": 0,
            "drawStyle": "line",
            "fillOpacity": 20,
            "gradientMode": "none",
            "hideFrom": {
              "legend": false,
              "tooltip": false,
              "viz": false
            },
            "insertNulls": false,
            "lineInterpolation": "linear",
            "lineWidth": 1,
            "pointSize": 5,
            "scaleDistribution": {
              "type": "linear"
            },
            "showPoints": "auto",
            "spanNulls": false,
            "stacking": {
              "group": "A",
              "mode": "normal"
            },
            "thresholdsStyle": {
              "mode": "off"
            }
          },
          "mappings": [],
          "thresholds": {
            "mode": "absolute",
            "steps": [
              {
                "color": "green",
                "value": null
              },
              {
                "color": "red",
                "value": 80
              }
            ]
          },
          "unit": "si:"
        },
        "overrides": []
      },
      "gridPos": {
        "h": 12,
        "w": 8,
        "x": 0,
        "y": 3
      },
      "id": 2,
      "options": {
        "legend": {
          "calcs": [
            "max",
            "mean",
            "sum"
          ],
          "displayMode": "table",
          "placement": "bottom",
          "showLegend": true
        },
        "tooltip": {
          "mode": "multi",
          "sort": "desc"
        }
      },
      "targets": [
        {
          "datasource": {
            "type": "mysql",
            "uid": "VGpHWV5Vk"
          },
          "format": "time_series",
          "group": [],
          "metricColumn": "none",
          "rawQuery": true,
          "rawSql": "SELECT\n`ac_key_LHCb-Production_Job_FinalMinorStatus`.`value`,\n`ac_bucket_LHCb-Production_Job`.`startTime` as time,\nSUM(`ac_bucket_LHCb-Production_Job`.`entriesInBucket`) / `ac_bucket_LHCb-Production_Job`.`bucketLength` * 3600 as metric\nFROM\n`ac_bucket_LHCb-Production_Job`,\n`ac_key_LHCb-Production_Job_JobType`,\n`ac_key_LHCb-Production_Job_FinalMinorStatus`\nWHERE `ac_bucket_LHCb-Production_Job`.`startTime` >= $__unixEpochFrom()\nAND `ac_bucket_LHCb-Production_Job`.`startTime` <= $__unixEpochTo()\nAND ( `ac_key_LHCb-Production_Job_JobType`.`value` in (\"10\", \"DataReconstruction\", \"DataReprocessing\", \"DataStripping\", \"DataSwimming\", \"Hospital\", \"MCReconstruction\", \"MCReprocessing\", \"MCSimulation\", \"MCStripping\", \"Merge\", \"MergeMDF\" ,\"private\", \"production\", \"reconstruction\", \"sam\", \"test\", \"unknown\", \"WGProduction\") )\nAND `ac_bucket_LHCb-Production_Job`.`FinalMinorStatus` = `ac_key_LHCb-Production_Job_FinalMinorStatus`.`id`\nAND `ac_bucket_LHCb-Production_Job`.`JobType` = `ac_key_LHCb-Production_Job_JobType`.`id`\nGROUP BY\nstartTime,\n`ac_key_LHCb-Production_Job_FinalMinorStatus`.Value,\nbucketlength",
          "refId": "A",
          "select": [
            [
              {
                "params": [
                  "endTime"
                ],
                "type": "column"
              }
            ]
          ],
          "table": "ac_in_LHCb-Production_DataOperation",
          "timeColumn": "takenSince",
          "timeColumnType": "timestamp",
          "where": [
            {
              "name": "$__timeFilter",
              "params": [],
              "type": "macro"
            }
          ]
        }
      ],
      "title": "Production Jobs By Final Minor Status",
      "transformations": [
        {
          "id": "renameByRegex",
          "options": {
            "regex": "metric ",
            "renamePattern": ""
          }
        }
      ],
      "type": "timeseries"
    },
    {
      "datasource": {
        "type": "mysql",
        "uid": "VGpHWV5Vk"
      },
      "fieldConfig": {
        "defaults": {
          "color": {
            "mode": "palette-classic"
          },
          "custom": {
            "axisCenteredZero": false,
            "axisColorMode": "text",
            "axisLabel": "Jobs/hour",
            "axisPlacement": "auto",
            "barAlignment": 0,
            "drawStyle": "line",
            "fillOpacity": 20,
            "gradientMode": "none",
            "hideFrom": {
              "legend": false,
              "tooltip": false,
              "viz": false
            },
            "insertNulls": false,
            "lineInterpolation": "linear",
            "lineWidth": 1,
            "pointSize": 5,
            "scaleDistribution": {
              "type": "linear"
            },
            "showPoints": "auto",
            "spanNulls": false,
            "stacking": {
              "group": "A",
              "mode": "normal"
            },
            "thresholdsStyle": {
              "mode": "off"
            }
          },
          "mappings": [],
          "thresholds": {
            "mode": "absolute",
            "steps": [
              {
                "color": "green",
                "value": null
              },
              {
                "color": "red",
                "value": 80
              }
            ]
          },
          "unit": "si:"
        },
        "overrides": []
      },
      "gridPos": {
        "h": 12,
        "w": 8,
        "x": 8,
        "y": 3
      },
      "id": 4,
      "options": {
        "legend": {
          "calcs": [
            "max",
            "mean",
            "sum"
          ],
          "displayMode": "table",
          "placement": "bottom",
          "showLegend": true
        },
        "tooltip": {
          "mode": "multi",
          "sort": "desc"
        }
      },
      "targets": [
        {
          "datasource": {
            "type": "mysql",
            "uid": "VGpHWV5Vk"
          },
          "format": "time_series",
          "group": [],
          "metricColumn": "none",
          "rawQuery": true,
          "rawSql": "SELECT\n`ac_key_LHCb-Production_Job_FinalMinorStatus`.`value`,\n`ac_bucket_LHCb-Production_Job`.`startTime` as time,\nSUM(`ac_bucket_LHCb-Production_Job`.`entriesInBucket`) / `ac_bucket_LHCb-Production_Job`.`bucketLength` * 3600 as metric\nFROM\n`ac_bucket_LHCb-Production_Job`,\n`ac_key_LHCb-Production_Job_JobType`,\n`ac_key_LHCb-Production_Job_FinalMinorStatus`\nWHERE `ac_bucket_LHCb-Production_Job`.`startTime` >= $__unixEpochFrom()\nAND `ac_bucket_LHCb-Production_Job`.`startTime` <= $__unixEpochTo()\nAND ( `ac_key_LHCb-Production_Job_JobType`.`value` = \"User\")\nAND `ac_bucket_LHCb-Production_Job`.`FinalMinorStatus` = `ac_key_LHCb-Production_Job_FinalMinorStatus`.`id`\nAND `ac_bucket_LHCb-Production_Job`.`JobType` = `ac_key_LHCb-Production_Job_JobType`.`id`\nGROUP BY\nstartTime,\n`ac_key_LHCb-Production_Job_FinalMinorStatus`.Value,\nbucketlength",
          "refId": "A",
          "select": [
            [
              {
                "params": [
                  "endTime"
                ],
                "type": "column"
              }
            ]
          ],
          "table": "ac_in_LHCb-Production_DataOperation",
          "timeColumn": "takenSince",
          "timeColumnType": "timestamp",
          "where": [
            {
              "name": "$__timeFilter",
              "params": [],
              "type": "macro"
            }
          ]
        }
      ],
      "title": "User Jobs By Final Minor Status",
      "transformations": [
        {
          "id": "renameByRegex",
          "options": {
            "regex": "metric ",
            "renamePattern": ""
          }
        }
      ],
      "type": "timeseries"
    },
    {
      "datasource": {
        "type": "mysql",
        "uid": "VGpHWV5Vk"
      },
      "fieldConfig": {
        "defaults": {
          "color": {
            "mode": "continuous-RdYlGr"
          },
          "custom": {
            "fillOpacity": 100,
            "hideFrom": {
              "legend": false,
              "tooltip": false,
              "viz": false
            },
            "lineWidth": 1
          },
          "mappings": [],
          "max": 100,
          "min": 0,
          "thresholds": {
            "mode": "absolute",
            "steps": [
              {
                "color": "green",
                "value": null
              },
              {
                "color": "red",
                "value": 80
              }
            ]
          }
        },
        "overrides": []
      },
      "gridPos": {
        "h": 12,
        "w": 8,
        "x": 16,
        "y": 3
      },
      "id": 6,
      "options": {
        "colWidth": 1,
        "legend": {
          "displayMode": "table",
          "placement": "bottom",
          "showLegend": true
        },
        "rowHeight": 0.95,
        "showValue": "auto",
        "tooltip": {
          "mode": "single",
          "sort": "none"
        }
      },
      "targets": [
        {
          "datasource": {
            "type": "mysql",
            "uid": "VGpHWV5Vk"
          },
          "format": "time_series",
          "group": [],
          "metricColumn": "none",
          "rawQuery": true,
          "rawSql": "SELECT\n`ac_key_LHCb-Production_Job_JobType`.`value`,\n`ac_bucket_LHCb-Production_Job`.`startTime` as time,\n100 * SUM(`ac_bucket_LHCb-Production_Job`.`CPUTime`) / SUM(`ac_bucket_LHCb-Production_Job`.`ExecTime`) / `ac_bucket_LHCb-Production_Job`.`bucketLength` * 3600 as metric\nFROM\n`ac_bucket_LHCb-Production_Job`,\n`ac_key_LHCb-Production_Job_JobType`\nWHERE\n`ac_bucket_LHCb-Production_Job`.`startTime` >= $__unixEpochFrom()\nAND `ac_bucket_LHCb-Production_Job`.`startTime` <= $__unixEpochTo()\nAND `ac_bucket_LHCb-Production_Job`.`JobType` = `ac_key_LHCb-Production_Job_JobType`.`id`\nGROUP BY\ntime,\n`ac_key_LHCb-Production_Job_JobType`.Value,\nbucketlength",
          "refId": "A",
          "select": [
            [
              {
                "params": [
                  "endTime"
                ],
                "type": "column"
              }
            ]
          ],
          "table": "ac_in_LHCb-Production_DataOperation",
          "timeColumn": "takenSince",
          "timeColumnType": "timestamp",
          "where": [
            {
              "name": "$__timeFilter",
              "params": [],
              "type": "macro"
            }
          ]
        }
      ],
      "title": "Job CPU Efficiency By JobType",
      "transformations": [
        {
          "id": "renameByRegex",
          "options": {
            "regex": "metric ",
            "renamePattern": ""
          }
        }
      ],
      "type": "status-history"
    },
    {
      "datasource": {
        "type": "elasticsearch",
        "uid": "iHcJcc-7z"
      },
      "fieldConfig": {
        "defaults": {
          "color": {
            "mode": "palette-classic"
          },
          "custom": {
            "axisCenteredZero": false,
            "axisColorMode": "text",
            "axisLabel": "jobs",
            "axisPlacement": "auto",
            "barAlignment": 0,
            "drawStyle": "line",
            "fillOpacity": 20,
            "gradientMode": "none",
            "hideFrom": {
              "legend": false,
              "tooltip": false,
              "viz": false
            },
            "insertNulls": false,
            "lineInterpolation": "linear",
            "lineWidth": 1,
            "pointSize": 5,
            "scaleDistribution": {
              "type": "linear"
            },
            "showPoints": "auto",
            "spanNulls": false,
            "stacking": {
              "group": "A",
              "mode": "normal"
            },
            "thresholdsStyle": {
              "mode": "off"
            }
          },
          "mappings": [],
          "thresholds": {
            "mode": "absolute",
            "steps": [
              {
                "color": "green",
                "value": null
              },
              {
                "color": "red",
                "value": 80
              }
            ]
          },
          "unit": "si:"
        },
        "overrides": []
      },
      "gridPos": {
        "h": 12,
        "w": 8,
        "x": 0,
        "y": 15
      },
      "id": 8,
      "options": {
        "legend": {
          "calcs": [
            "max",
            "mean",
            "sum"
          ],
          "displayMode": "table",
          "placement": "bottom",
          "showLegend": true
        },
        "tooltip": {
          "mode": "multi",
          "sort": "desc"
        }
      },
      "targets": [
        {
          "alias": "",
          "bucketAggs": [
            {
              "field": "JobSplitType",
              "id": "3",
              "settings": {
                "min_doc_count": "1",
                "order": "desc",
                "orderBy": "1",
                "size": "0"
              },
              "type": "terms"
            },
            {
              "field": "timestamp",
              "id": "2",
              "settings": {
                "interval": "auto"
              },
              "type": "date_histogram"
            }
          ],
          "datasource": {
            "type": "elasticsearch",
            "uid": "iHcJcc-7z"
          },
          "metrics": [
            {
              "field": "Jobs",
              "id": "1",
              "settings": {
                "script": "_value * 3600 / $__interval_ms * 250"
              },
              "type": "sum"
            }
          ],
          "query": "Status: Running",
          "refId": "A",
          "timeField": "timestamp"
        }
      ],
      "title": "Jobs By JobSplitType (ES)",
      "type": "timeseries"
    },
    {
      "datasource": {
        "type": "mysql",
        "uid": "VGpHWV5Vk"
      },
      "fieldConfig": {
        "defaults": {
          "color": {
            "mode": "palette-classic"
          },
          "custom": {
            "axisCenteredZero": false,
            "axisColorMode": "text",
            "axisLabel": "files/hour",
            "axisPlacement": "auto",
            "barAlignment": 0,
            "drawStyle": "line",
            "fillOpacity": 20,
            "gradientMode": "none",
            "hideFrom": {
              "legend": false,
              "tooltip": false,
              "viz": false
            },
            "insertNulls": false,
            "lineInterpolation": "stepAfter",
            "lineWidth": 1,
            "pointSize": 1,
            "scaleDistribution": {
              "type": "linear"
            },
            "showPoints": "auto",
            "spanNulls": false,
            "stacking": {
              "group": "A",
              "mode": "normal"
            },
            "thresholdsStyle": {
              "mode": "off"
            }
          },
          "mappings": [],
          "thresholds": {
            "mode": "absolute",
            "steps": [
              {
                "color": "green",
                "value": null
              },
              {
                "color": "red",
                "value": 80
              }
            ]
          },
          "unit": "si:"
        },
        "overrides": []
      },
      "gridPos": {
        "h": 12,
        "w": 8,
        "x": 8,
        "y": 15
      },
      "id": 10,
      "options": {
        "legend": {
          "calcs": [
            "max",
            "mean",
            "sum"
          ],
          "displayMode": "table",
          "placement": "bottom",
          "showLegend": true
        },
        "tooltip": {
          "mode": "multi",
          "sort": "desc"
        }
      },
      "targets": [
        {
          "datasource": {
            "type": "mysql",
            "uid": "VGpHWV5Vk"
          },
          "format": "time_series",
          "group": [],
          "metricColumn": "none",
          "rawQuery": true,
          "rawSql": "SELECT\n`ac_key_LHCb-Production_DataOperation_Protocol`.`value`,\n`ac_bucket_LHCb-Production_DataOperation`.`startTime` as time,\n-- TRUNCATE(`ac_bucket_LHCb-Production_DataOperation`.`startTime` / 3600, 0) * 3600 as time,\n-- SUM(`ac_bucket_LHCb-Production_DataOperation`.`TransferOK`),\n(SUM(`ac_bucket_LHCb-Production_DataOperation`.`TransferTotal`) - SUM(`ac_bucket_LHCb-Production_DataOperation`.`TransferOK`) ) / `ac_bucket_LHCb-Production_DataOperation`.`bucketLength` * 3600 AS metric\nFROM\n`ac_bucket_LHCb-Production_DataOperation`,\n`ac_key_LHCb-Production_DataOperation_Protocol`,\n`ac_key_LHCb-Production_DataOperation_FinalStatus`\nWHERE `ac_bucket_LHCb-Production_DataOperation`.`startTime` >= $__unixEpochFrom()\nAND `ac_bucket_LHCb-Production_DataOperation`.`startTime` <= $__unixEpochTo()\nAND ( `ac_key_LHCb-Production_DataOperation_FinalStatus`.`value` = \"Failed\" )\nAND `ac_bucket_LHCb-Production_DataOperation`.`Protocol` =\n`ac_key_LHCb-Production_DataOperation_Protocol`.`id`\nAND `ac_bucket_LHCb-Production_DataOperation`.`FinalStatus` = `ac_key_LHCb-Production_DataOperation_FinalStatus`.`id`\nGROUP BY\ntime,\n`ac_key_LHCb-Production_DataOperation_Protocol`.Value,\nbucketlength",
          "refId": "A",
          "select": [
            [
              {
                "params": [
                  "endTime"
                ],
                "type": "column"
              }
            ]
          ],
          "table": "ac_in_LHCb-Production_DataOperation",
          "timeColumn": "takenSince",
          "timeColumnType": "timestamp",
          "where": [
            {
              "name": "$__timeFilter",
              "params": [],
              "type": "macro"
            }
          ]
        }
      ],
      "title": "Failed Transfers By Protocol",
      "transformations": [
        {
          "id": "renameByRegex",
          "options": {
            "regex": "metric ",
            "renamePattern": ""
          }
        }
      ],
      "type": "timeseries"
    },
    {
      "datasource": {
        "type": "mysql",
        "uid": "VGpHWV5Vk"
      },
      "fieldConfig": {
        "defaults": {
          "color": {
            "mode": "palette-classic"
          },
          "custom": {
            "axisCenteredZero": false,
            "axisColorMode": "text",
            "axisLabel": "pilots/hour",
            "axisPlacement": "auto",
            "barAlignment": 0,
            "drawStyle": "line",
            "fillOpacity": 20,
            "gradientMode": "none",
            "hideFrom": {
              "legend": false,
              "tooltip": false,
              "viz": false
            },
            "insertNulls": false,
            "lineInterpolation": "linear",
            "lineWidth": 1,
            "pointSize": 5,
            "scaleDistribution": {
              "type": "linear"
            },
            "showPoints": "auto",
            "spanNulls": false,
            "stacking": {
              "group": "A",
              "mode": "normal"
            },
            "thresholdsStyle": {
              "mode": "off"
            }
          },
          "mappings": [],
          "thresholds": {
            "mode": "absolute",
            "steps": [
              {
                "color": "green",
                "value": null
              },
              {
                "color": "red",
                "value": 80
              }
            ]
          },
          "unit": "si:"
        },
        "overrides": []
      },
      "gridPos": {
        "h": 12,
        "w": 8,
        "x": 16,
        "y": 15
      },
      "id": 12,
      "options": {
        "legend": {
          "calcs": [
            "max",
            "mean",
            "sum"
          ],
          "displayMode": "table",
          "placement": "bottom",
          "showLegend": true
        },
        "tooltip": {
          "mode": "multi",
          "sort": "desc"
        }
      },
      "targets": [
        {
          "datasource": {
            "type": "mysql",
            "uid": "VGpHWV5Vk"
          },
          "format": "time_series",
          "group": [],
          "metricColumn": "none",
          "rawQuery": true,
          "rawSql": "SELECT\n`ac_key_LHCb-Production_Pilot_GridStatus`.`value`,\n`ac_bucket_LHCb-Production_Pilot`.`startTime` as time,\nSUM(`ac_bucket_LHCb-Production_Pilot`.`entriesInBucket`) / `ac_bucket_LHCb-Production_Pilot`.`bucketLength` * 3600 as metric\nFROM\n`ac_bucket_LHCb-Production_Pilot`,\n`ac_key_LHCb-Production_Pilot_GridStatus`\nWHERE\n`ac_bucket_LHCb-Production_Pilot`.`startTime` >= $__unixEpochFrom()\nAND `ac_bucket_LHCb-Production_Pilot`.`startTime` <= $__unixEpochTo()\nAND `ac_bucket_LHCb-Production_Pilot`.`GridStatus` = `ac_key_LHCb-Production_Pilot_GridStatus`.`id`\nGROUP BY\nstartTime,\n`ac_key_LHCb-Production_Pilot_GridStatus`.Value,\nbucketlength",
          "refId": "A",
          "select": [
            [
              {
                "params": [
                  "endTime"
                ],
                "type": "column"
              }
            ]
          ],
          "table": "ac_in_LHCb-Production_DataOperation",
          "timeColumn": "takenSince",
          "timeColumnType": "timestamp",
          "where": [
            {
              "name": "$__timeFilter",
              "params": [],
              "type": "macro"
            }
          ]
        }
      ],
      "title": "Pilots By Status",
      "transformations": [
        {
          "id": "renameByRegex",
          "options": {
            "regex": "metric ",
            "renamePattern": ""
          }
        }
      ],
      "type": "timeseries"
    },
    {
      "cards": {},
      "color": {
        "cardColor": "#b4ff00",
        "colorScale": "sqrt",
        "colorScheme": "interpolateRdYlGn",
        "exponent": 0.5,
        "max": 0,
        "min": 100,
        "mode": "spectrum"
      },
      "dataFormat": "tsbuckets",
      "datasource": {
        "type": "mysql",
        "uid": "VGpHWV5Vk"
      },
      "fieldConfig": {
        "defaults": {
          "custom": {
            "hideFrom": {
              "legend": false,
              "tooltip": false,
              "viz": false
            },
            "scaleDistribution": {
              "type": "linear"
            }
          }
        },
        "overrides": []
      },
      "gridPos": {
        "h": 12,
        "w": 8,
        "x": 0,
        "y": 27
      },
      "heatmap": {},
      "hideZeroBuckets": false,
      "highlightCards": true,
      "id": 13,
      "legend": {
        "show": true
      },
      "options": {
        "calculate": false,
        "calculation": {},
        "cellGap": 2,
        "cellValues": {
          "decimals": 2
        },
        "color": {
          "exponent": 0.5,
          "fill": "#b4ff00",
          "max": 100,
          "min": 0,
          "mode": "scheme",
          "reverse": true,
          "scale": "exponential",
          "scheme": "RdYlGn",
          "steps": 128
        },
        "exemplars": {
          "color": "rgba(255,0,255,0.7)"
        },
        "filterValues": {
          "le": 1e-9
        },
        "legend": {
          "show": true
        },
        "rowsFrame": {
          "layout": "unknown"
        },
        "showValue": "never",
        "tooltip": {
          "show": true,
          "yHistogram": false
        },
        "yAxis": {
          "axisPlacement": "left",
          "reverse": false,
          "unit": "short"
        }
      },
      "pluginVersion": "10.1.5",
      "reverseYBuckets": false,
      "targets": [
        {
          "datasource": {
            "type": "mysql",
            "uid": "VGpHWV5Vk"
          },
          "format": "time_series",
          "group": [],
          "metricColumn": "none",
          "rawQuery": true,
          "rawSql": "SELECT\n`ac_key_LHCb-Production_Job_JobType`.`value`,\n`ac_bucket_LHCb-Production_Job`.`startTime` as time,\n100 * SUM(`ac_bucket_LHCb-Production_Job`.`CPUTime`) / SUM(`ac_bucket_LHCb-Production_Job`.`ExecTime`) / `ac_bucket_LHCb-Production_Job`.`bucketLength` * 3600 as metric\nFROM\n`ac_bucket_LHCb-Production_Job`,\n`ac_key_LHCb-Production_Job_JobType`\nWHERE\n`ac_bucket_LHCb-Production_Job`.`startTime` >= $__unixEpochFrom()\nAND `ac_bucket_LHCb-Production_Job`.`startTime` <= $__unixEpochTo()\nAND `ac_bucket_LHCb-Production_Job`.`JobType` = `ac_key_LHCb-Production_Job_JobType`.`id`\nGROUP BY\ntime,\n`ac_key_LHCb-Production_Job_JobType`.Value,\nbucketlength",
          "refId": "A",
          "select": [
            [
              {
                "params": [
                  "endTime"
                ],
                "type": "column"
              }
            ]
          ],
          "table": "ac_in_LHCb-Production_DataOperation",
          "timeColumn": "takenSince",
          "timeColumnType": "timestamp",
          "where": [
            {
              "name": "$__timeFilter",
              "params": [],
              "type": "macro"
            }
          ]
        }
      ],
      "title": "Job CPU Efficiency By JobType",
      "tooltip": {
        "show": true,
        "showHistogram": false
      },
      "tooltipDecimals": 2,
      "transformations": [
        {
          "id": "renameByRegex",
          "options": {
            "regex": "metric ",
            "renamePattern": ""
          }
        }
      ],
      "type": "heatmap",
      "xAxis": {
        "show": true
      },
      "yAxis": {
        "format": "short",
        "logBase": 1,
        "show": true
      },
      "yBucketBound": "middle"
    },
    {
      "datasource": {
        "type": "mysql",
        "uid": "VGpHWV5Vk"
      },
      "fieldConfig": {
        "defaults": {
          "color": {
            "mode": "continuous-RdYlGr"
          },
          "custom": {
            "fillOpacity": 100,
            "hideFrom": {
              "legend": false,
              "tooltip": false,
              "viz": false
            },
            "lineWidth": 1
          },
          "mappings": [],
          "max": 100,
          "min": 0,
          "thresholds": {
            "mode": "absolute",
            "steps": [
              {
                "color": "green",
                "value": null
              },
              {
                "color": "red",
                "value": 80
              }
            ]
          }
        },
        "overrides": []
      },
      "gridPos": {
        "h": 12,
        "w": 8,
        "x": 8,
        "y": 27
      },
      "id": 14,
      "options": {
        "colWidth": 1,
        "legend": {
          "displayMode": "table",
          "placement": "bottom",
          "showLegend": true
        },
        "rowHeight": 0.95,
        "showValue": "auto",
        "tooltip": {
          "mode": "single",
          "sort": "none"
        }
      },
      "targets": [
        {
          "datasource": {
            "type": "mysql",
            "uid": "VGpHWV5Vk"
          },
          "format": "time_series",
          "group": [],
          "metricColumn": "none",
          "rawQuery": true,
          "rawSql": "SELECT\n`ac_key_LHCb-Production_Job_JobType`.`value`,\n`ac_bucket_LHCb-Production_Job`.`startTime` as time,\n100 * SUM(`ac_bucket_LHCb-Production_Job`.`CPUTime`) / SUM(`ac_bucket_LHCb-Production_Job`.`ExecTime`) / `ac_bucket_LHCb-Production_Job`.`bucketLength` * 3600 as metric\nFROM\n`ac_bucket_LHCb-Production_Job`,\n`ac_key_LHCb-Production_Job_JobType`\nWHERE\n`ac_bucket_LHCb-Production_Job`.`startTime` >= $__unixEpochFrom()\nAND `ac_bucket_LHCb-Production_Job`.`startTime` <= $__unixEpochTo()\nAND `ac_bucket_LHCb-Production_Job`.`JobType` = `ac_key_LHCb-Production_Job_JobType`.`id`\nGROUP BY\ntime,\n`ac_key_LHCb-Production_Job_JobType`.Value,\nbucketlength",
          "refId": "A",
          "select": [
            [
              {
                "params": [
                  "endTime"
                ],
                "type": "column"
              }
            ]
          ],
          "table": "ac_in_LHCb-Production_DataOperation",
          "timeColumn": "takenSince",
          "timeColumnType": "timestamp",
          "where": [
            {
              "name": "$__timeFilter",
              "params": [],
              "type": "macro"
            }
          ]
        }
      ],
      "title": "Job CPU Efficiency By JobType",
      "transformations": [
        {
          "id": "renameByRegex",
          "options": {
            "regex": "metric ",
            "renamePattern": ""
          }
        }
      ],
      "type": "status-history"
    }
  ],
  "refresh": "",
  "schemaVersion": 38,
  "style": "dark",
  "tags": [],
  "templating": {
    "list": []
  },
  "time": {
    "from": "now-24h",
    "to": "now"
  },
  "timepicker": {},
  "timezone": "",
  "title": "Overview",
  "uid": "qQoqDUA4z",
  "version": 12,
  "weekStart": ""
}
