[
  {
    "_id": "lhcb-dashboard-3",
    "_type": "dashboard",
    "_source": {
      "title": "Productions with most Errors",
      "hits": 0,
      "description": "",
      "panelsJSON": "[{\"panelIndex\":\"1\",\"gridData\":{\"x\":0,\"y\":0,\"w\":6,\"h\":6,\"i\":\"1\"},\"id\":\"6c978d50-8a11-11ea-bef2-1d663f7888cc\",\"type\":\"visualization\",\"version\":\"6.2.4\"},{\"panelIndex\":\"2\",\"gridData\":{\"x\":6,\"y\":0,\"w\":6,\"h\":6,\"i\":\"2\"},\"id\":\"80c1e7d0-8a11-11ea-bef2-1d663f7888cc\",\"type\":\"visualization\",\"version\":\"6.2.4\"},{\"panelIndex\":\"3\",\"gridData\":{\"x\":0,\"y\":6,\"w\":6,\"h\":6,\"i\":\"3\"},\"id\":\"910bfae0-8a11-11ea-bef2-1d663f7888cc\",\"type\":\"visualization\",\"version\":\"6.2.4\"},{\"panelIndex\":\"4\",\"gridData\":{\"x\":6,\"y\":6,\"w\":6,\"h\":6,\"i\":\"4\"},\"version\":\"6.2.4\",\"type\":\"visualization\",\"id\":\"b325cb10-8a1b-11ea-bef2-1d663f7888cc\"}]",
      "optionsJSON": "{\"darkTheme\":false,\"hidePanelTitles\":false,\"useMargins\":true}",
      "version": 1,
      "timeRestore": false,
      "kibanaSavedObjectMeta": {
        "searchSourceJSON": "{\"query\":{\"language\":\"lucene\",\"query\":\"\"},\"filter\":[],\"highlightAll\":true,\"version\":true}"
      }
    }
  }
]
